143.44	262.76	244.08	10	2
-218.63	151.03	229.45	10	2
-250.76	163.29	239.65	10	2
77.406	213.9	232.1	10	2
-230.86	181.91	224.76	10	2
17.867	92.948	241.99	10	2
-211.61	-132.71	231.62	10	2
-255.98	37.037	238.73	10	2
45.464	252.37	236.82	10	2
39.929	-49.169	230.1	10	2
225.06	229.26	204.19	10	2
-268.91	-133.5	244.54	10	2
-102.96	258.66	220.55	10	2
-62.772	167.38	245.72	10	2
166.51	28.573	236.94	10	2
-15.907	184.94	221.9	10	2
-83.494	-148.68	220.8	10	2
7.7124	261.55	212.56	10	2
-65.391	-174.02	210.39	10	2
265.16	-79.817	233.1	10	2
248.95	166.98	224.1	10	2
41.916	-140.45	209.13	10	2
217.52	-191.37	206.77	10	2
-81.833	-84.235	248.65	10	2
-39.356	-104.15	209.37	10	2
-233.33	-180.67	211.25	10	2
194.13	216.36	228.53	10	2
204.83	232.51	249.43	10	2
19.868	194.9	247.26	10	2
27.843	154.49	218.39	10	2
258.03	126.05	212.04	10	2
-38.343	102.16	231.87	10	2
-91.121	-154.51	241.96	10	2
-190.85	53.961	228.49	10	2
5.8595	5.2048	239.22	10	2
-128.25	-72.735	214.19	10	2
-33.723	251.18	216.39	10	2
-253.01	103.03	245.5	10	2
-112.73	188.38	216.26	10	2
-116.62	-226.57	232.98	10	2
33.986	19.929	245.03	10	2
-110.81	-121.7	215.32	10	2
78.332	-242.03	216.78	10	2
-177.83	-55.688	228.69	10	2
166.06	80.665	224.1	10	2
-44.011	-268.9	205.07	10	2
262.82	-78.99	212.69	10	2
268.54	-226.71	226.51	10	2
118.08	156.8	211.19	10	2
198.47	-98.369	208.28	10	2
146.99	14.5	236.34	10	2
254.94	253.3	221.78	10	2
104.14	264.16	231.7	10	2
-172.07	-198.7	219.59	10	2
112.9	-178.73	206.88	10	2
-241.72	244.01	231.3	10	2
-146.92	88.784	203.93	10	2
-198.55	-51.5	238.97	10	2
-265.02	11.802	229.07	10	2
200.09	-201.9	249.85	10	2
58.497	-91.72	202.43	10	2
226.68	217.09	242.66	10	2
-196.67	-262.73	209.35	10	2
49.799	-254.17	218.46	10	2
-238.63	211.24	216.34	10	2
-131.36	-154.04	239.21	10	2
-110.33	-102.28	236.99	10	2
66.132	-151.3	235.78	10	2
-176.54	3.2692	204.45	10	2
156.29	-239.93	241.44	10	2
193.09	-167.31	244.87	10	2
211.34	250.55	208.52	10	2
0.65752	237.33	231.68	10	2
-79.172	86.291	227.74	10	2
240.95	253.49	200	10	2
-268.92	-37.341	200.81	10	2
-157.45	-56.464	232.14	10	2
-48.518	171.13	220.94	10	2
-271.63	195.13	241.23	10	2
195.64	66.451	201.98	10	2
-103.72	164.12	246.93	10	2
83.418	-22.496	231.83	10	2
-33.483	-92.888	244.49	10	2
230.32	186.67	226.32	10	2
269.75	-33.064	203.92	10	2
-81.664	-1.6724	235.14	10	2
123.18	94.032	237.12	10	2
-79.619	19.075	243.26	10	2
133.57	272.85	224.62	10	2
91.758	203.75	221.58	10	2
-216.38	169.35	248.24	10	2
-136.23	-37.021	221.33	10	2
112.9	-218.75	201.46	10	2
60.327	-46.695	208.4	10	2
0.82564	104.22	220.72	10	2
235.01	-165.08	219.05	10	2
270.29	-129.95	246.51	10	2
253.78	-44.713	233.16	10	2
201.77	42.74	235.03	10	2
24.758	267.31	200.57	10	2
147	24.715	201.78	10	2
71.255	66.701	217.74	10	2
-252.47	-258.78	211.37	10	2
124.24	-215.21	228.36	10	2
-190.46	67.52	209.46	10	2
164.17	15.282	213.12	10	2
137.11	-167.44	205.08	10	2
-70.645	108.33	213.83	10	2
257.01	-205.32	222.02	10	2
104.2	72.5	228.03	10	2
-12.727	-43.564	221.94	10	2
272.84	235.84	240.1	10	2
37.612	-23.328	232.1	10	2
-194.15	5.2573	244.48	10	2
243.26	-119.22	217.15	10	2
54.212	150.46	207.17	10	2
117.88	79.101	210.16	10	2
-174.17	-122.46	204	10	2
-239.71	-1.8662	235.8	10	2
-72.85	-81.515	205.24	10	2
-50.424	224.35	248.44	10	2
-236.68	99.149	206.42	10	2
-20.041	112.11	215.76	10	2
84.061	-142.52	206.38	10	2
-50.508	241.27	201.91	10	2
-113.43	35.292	212.39	10	2
-0.41526	9.2481	204.29	10	2
22.654	184.29	219.3	10	2
179.24	104.04	211.89	10	2
112.84	-142.26	230.69	10	2
-196.22	30.276	220.56	10	2
-146.43	-102.18	231.94	10	2
211.06	-22.149	223.48	10	2
274.74	82.291	207.79	10	2
192.79	-107.36	245.89	10	2
158.39	67.693	204.9	10	2
141.14	73.94	228.59	10	2
27.22	265.09	222.05	10	2
87.045	-227.34	201.36	10	2
-208.92	270.99	206.12	10	2
-152.94	212.09	218.14	10	2
-151.9	210.88	246.4	10	2
216.34	83.296	208.32	10	2
-233.75	269.3	247.17	10	2
-164.98	248.89	227.55	10	2
-179.53	-252.94	204.79	10	2
69.709	180.23	249.84	10	2
-69.303	-255.82	243.02	10	2
-272.51	-164.75	228.82	10	2
200.18	-178.74	225.22	10	2
-206.83	195.83	201.45	10	2
153.92	-66.605	219.61	10	2
202.35	256.87	241.22	10	2
-210.3	-104.03	248.49	10	2
-198.13	126.94	232.92	10	2
-247.03	138.11	204.22	10	2
-115.05	143.67	244.79	10	2
-90.999	128.74	231.9	10	2
-204.99	91.333	220.63	10	2
-74.27	-133.13	231.07	10	2
-256.62	203.52	223.34	10	2
-92.159	-185.31	217.1	10	2
-190.5	-235	204.81	10	2
154.89	194.56	206.74	10	2
62.869	-98.665	245.2	10	2
-216.73	126.71	200.44	10	2
-1.0836	-230.3	204.57	10	2
142	-90.21	203.8	10	2
181.16	63.126	242.97	10	2
-49.157	-111.78	226.17	10	2
132.09	-194.8	205.21	10	2
-197.12	251	206.86	10	2
138.67	-44.521	214.32	10	2
-154.53	189.72	214.33	10	2
-105.92	146.06	213.37	10	2
-244.29	-132.37	237.45	10	2
252.97	-106.43	230.62	10	2
256.97	-128.93	200.36	10	2
43.324	-107.8	218.36	10	2
-152.72	-31.055	210.32	10	2
-11.515	-243.96	221.82	10	2
-93.424	-209.21	217.78	10	2
115.84	243.47	204.78	10	2
-267.92	-245.86	242.99	10	2
-168.54	-25.084	243.32	10	2
-177.56	216.4	244.55	10	2
116.25	-267.9	204.38	10	2
126.52	-85.318	236.76	10	2
-150.4	-82.576	217.04	10	2
-88.344	-268.15	221.71	10	2
226.98	35.092	200.44	10	2
181.04	-44.24	241.07	10	2
201.3	161.62	202.84	10	2
235.41	133.11	229.05	10	2
-253.22	-41.24	214.92	10	2
-261.7	-34.057	244.79	10	2
-95.611	201.35	217.37	10	2
126.57	-114.82	200.8	10	2
-19.534	-113.83	247.97	10	2
-28.579	-12.8	220.4	10	2
-107.76	74.132	201.26	10	2
-137.91	259.09	208.83	10	2
-121.3	-271.89	219.41	10	2
145.04	-227.83	222.53	10	2
85.903	-110.58	220.95	10	2
-47.21	22.129	235.53	10	2
151.68	-123.64	238.21	10	2
138.84	-17.368	249.46	10	2
78.24	178.2	203.06	10	2
172.38	-148.12	223.45	10	2
30.797	110.12	222.11	10	2
-196.93	-180.93	230.86	10	2
174.78	-78.786	204.04	10	2
32.18	269.95	244.36	10	2
202.08	-158.4	216.14	10	2
-254.06	225.74	242.89	10	2
18.406	-61.426	209.42	10	2
-174.55	103.24	221.03	10	2
173.77	44.868	212.2	10	2
-244.38	76.908	226.69	10	2
-257.14	-158.67	202.92	10	2
-55.639	-143.4	226.59	10	2
97.682	244.44	218.21	10	2
107.94	139.11	210.4	10	2
-261.86	148.59	218.6	10	2
84.463	-10.04	211.46	10	2
-183.42	140.09	225.95	10	2
-69.554	110.63	244.15	10	2
86.562	-134.16	241.96	10	2
55.772	57.882	207.58	10	2
-181.68	-155.76	233.23	10	2
-206.67	-156.6	214.92	10	2
71.708	273.3	244.92	10	2
2.7829	-128.92	205.83	10	2
74.605	139.71	244.26	10	2
13.974	81.748	222.47	10	2
83.678	-203.49	232.32	10	2
249.18	-176.79	202.35	10	2
-76.176	-199.75	238.42	10	2
174.59	-87.407	231.16	10	2
122.72	219.89	219.63	10	2
-234.2	117.46	226	10	2
105.23	168.14	232.69	10	2
257.91	-183.13	221.79	10	2
-167.14	169.36	224.5	10	2
233.67	80.384	247.86	10	2
65.614	75.77	244.79	10	2
80.046	-50.343	248.35	10	2
108.24	121.77	239.68	10	2
120.21	-135.58	207.26	10	2
-224.14	12.334	242.26	10	2
249.13	82.291	229.26	10	2
199.9	-236.49	205.07	10	2
196.3	123.95	244.01	10	2
166.06	-46.982	221.49	10	2
139.68	187.43	223.37	10	2
244.21	-9.9292	215.64	10	2
-24.476	67.719	238.82	10	2
-153.16	-159.67	231.55	10	2
-71.979	52.24	243.76	10	2
20.596	209.97	211.69	10	2
265.21	109.22	223.53	10	2
-94.405	203.24	241.69	10	2
58.704	-161.25	213.79	10	2
-65.958	-22.662	216.31	10	2
5.6282	116.92	236.28	10	2
184.97	89.063	225.27	10	2
-53.724	136.47	216.37	10	2
253.47	6.3837	207.75	10	2
-202.61	83.633	201.13	10	2
-188.04	-251.27	228.31	10	2
105.42	-50.015	227.85	10	2
-206.85	236.01	230.73	10	2
-266.46	-199.79	206.53	10	2
-181.74	-127.88	234.48	10	2
90.814	84.225	209.4	10	2
30.177	-85.243	227.91	10	2
-240.45	-5.3918	212.24	10	2
-62.259	-173.33	238.3	10	2
-217.93	-9.9367	215.63	10	2
-237.6	145.12	240.9	10	2
-253.33	-90.054	248.33	10	2
167.81	138.66	222.55	10	2
-61.093	193.42	221.47	10	2
-273.25	246.62	247.76	10	2
187.97	273.49	218.41	10	2
12.627	-243.15	246.83	10	2
-145.89	21.553	226.39	10	2
80.744	-218	247.84	10	2
138.93	50.079	217.11	10	2
227.75	-11.894	247.78	10	2
89.908	102.36	246.71	10	2
237.19	-257	214.06	10	2
-253.42	-115.39	243.01	10	2
-48.125	235.38	221.73	10	2
-146.67	-122.71	237.21	10	2
-175.26	-80.326	202.61	10	2
215.82	114.41	202.84	10	2
-26.975	-12.06	248.85	10	2
10.887	-162.91	218.05	10	2
-165.85	53.925	227.98	10	2
19.984	-184.9	200.46	10	2
222.53	-268.68	240.31	10	2
-270.19	-181.14	214.5	10	2
100.21	-230.93	233.65	10	2
154.26	-268.65	208.02	10	2
-215.53	44.091	217.86	10	2
-1.3439	-259.5	213.05	10	2
202.21	134.52	222.96	10	2
218.49	68.128	237.65	10	2
-108.09	269.64	203.28	10	2
-241.23	-134.45	215.1	10	2
-83.259	64.787	202.06	10	2
254.48	30.981	249.61	10	2
-71.675	247.54	210.5	10	2
195.95	-206.4	223.03	10	2
-64.616	-268.1	224.43	10	2
128.73	230.44	248.86	10	2
161.4	172.55	216.93	10	2
-14.84	120.44	233.22	10	2
-274.38	-102.31	201.7	10	2
233.51	-52.321	221.51	10	2
237.51	9.6766	230.01	10	2
-98.448	89.472	241.08	10	2
-154.28	61.361	205.32	10	2
-25.943	35.883	202.43	10	2
1.3962	-32.422	210.77	10	2
94.303	-112.14	244.76	10	2
7.6307	-273.2	228.97	10	2
-7.6381	-184.36	243.01	10	2
-191.57	159.34	204.37	10	2
82.2	-82.649	243.23	10	2
-116.65	18.734	247.24	10	2
-27.081	201.74	208.45	10	2
-128.56	-48.144	240.35	10	2
-69.708	-244.07	209.38	10	2
12.281	-217.43	236.01	10	2
-117.54	-120.38	249.41	10	2
141.63	-274.04	224.58	10	2
122.52	252.83	230.7	10	2
95.34	-255.06	226.27	10	2
-0.91261	30.493	231.33	10	2
-227.38	-170.14	246.52	10	2
-274.92	178.15	212.86	10	2
50.301	22.22	218.94	10	2
1.4482	123.53	209.09	10	2
-212.13	8.6122	221.51	10	2
-124.97	84.358	240.75	10	2
-36.414	-64.489	243.78	10	2
-26.06	-106.96	225.58	10	2
48.391	105.43	246.85	10	2
-16.574	56.574	223.29	10	2
207.55	-222.83	234.94	10	2
27.589	216.51	235.03	10	2
-232.85	-31.846	220.06	10	2
192.46	-139.12	248.07	10	2
-75.419	-97.678	235.13	10	2
-228.73	-216.17	205.2	10	2
66.953	-184.47	226.32	10	2
107.18	-176.3	236.29	10	2
148.43	143.84	208.47	10	2
252.45	-196.02	247.01	10	2
192.14	152.88	226.3	10	2
228.66	-139.62	225.09	10	2
71.991	-19.96	248.25	10	2
-16.544	165.78	247.14	10	2
142.2	-243.82	204.38	10	2
27.333	-5.843	209.01	10	2
259.94	-103.12	249.55	10	2
257.92	-144.31	236.56	10	2
-199.67	112.07	248.29	10	2
19.138	-186.38	242.81	10	2
28.653	-226.83	201.5	10	2
-48.118	265.06	218.42	10	2
-37.915	-242.35	224.18	10	2
216.63	169.34	249.57	10	2
264.45	-107.87	210.61	10	2
-200.77	-77.964	221.74	10	2
265.9	225.26	213.42	10	2
100.13	-35.2	214.52	10	2
-38.139	-181.99	212.01	10	2
182.71	-258.62	215.42	10	2
-258.93	-224.31	228.39	10	2
-261.94	-57.524	234.02	10	2
-73.276	25.437	201.12	10	2
221.55	-96.584	205.62	10	2
224.79	11.022	207.97	10	2
270.66	-182.94	246.39	10	2
162.25	-29.836	248.86	10	2
136.95	164.07	203.25	10	2
264.6	20.662	223.68	10	2
-127.06	-264.24	245.18	10	2
223.17	192.68	249.38	10	2
-166.52	121.47	215.41	10	2
-85.865	-129.45	204.79	10	2
-268.4	76.063	239	10	2
101.34	58.786	242.59	10	2
39.607	72.23	212.16	10	2
-45.898	-194.49	228.59	10	2
-75.863	-44.678	238.7	10	2
-148.81	-34.846	237.33	10	2
57.504	-17.023	210.9	10	2
81.981	-62.629	202.5	10	2
-126.8	-27.73	247.69	10	2
182.67	-189.31	243.37	10	2
-196.04	217.23	224.25	10	2
126.5	6.9477	215.64	10	2
182.72	-147.64	205.68	10	2
117.66	-112.14	243.31	10	2
-5.0315	-184.62	216.23	10	2
-0.20375	213.43	247.14	10	2
-237.86	238.36	202.67	10	2
171.1	211.06	200.43	10	2
111.69	-159.23	249.4	10	2
-132.79	203.56	232.4	10	2
-12.687	-70.34	234.76	10	2
49.312	-151.76	249.19	10	2
-253.04	259.37	221.9	10	2
-104.21	-35.902	246.19	10	2
-264.77	-10.167	224.31	10	2
-132.34	2.3426	247.72	10	2
-176.7	187.72	245.36	10	2
166.66	-206.54	214.79	10	2
236.48	271.7	237.96	10	2
98.504	9.4604	238.6	10	2
50.43	-46.979	248.86	10	2
-116.98	92.099	205.61	10	2
-167.72	-254.89	245.84	10	2
102.56	266.81	209.92	10	2
-179.55	-98.303	230.09	10	2
123.57	-167.72	225.43	10	2
89.159	19.455	211.9	10	2
-8.4564	259.77	242.39	10	2
-15.148	-158.67	220.32	10	2
33.939	55.765	222.88	10	2
269.34	108.17	243.76	10	2
152.72	-170.2	239.91	10	2
-242.3	-103.93	213.08	10	2
-74.278	232.42	239.52	10	2
201.94	-61.557	248.94	10	2
-22.695	202.44	244.56	10	2
187.5	87.156	201.07	10	2
17.23	-155.97	243.86	10	2
269.85	-208.93	206.43	10	2
-206.31	172.33	210.09	10	2
-85.999	-66.061	225.83	10	2
-42.373	-118.25	248.48	10	2
249.8	-60.532	210.87	10	2
36.229	-226.7	237.53	10	2
228.68	-65.592	201.9	10	2
-202.19	109.68	201.27	10	2
-231.98	-210.44	226.57	10	2
-105.4	58.367	234.73	10	2
264.21	155.97	209	10	2
248.15	-238.47	224.34	10	2
-12.047	-206.24	234.02	10	2
-51.308	-91.623	229.78	10	2
-157.83	154.16	238.17	10	2
229.65	-15.564	201.74	10	2
13.015	181.68	201.42	10	2
-249.28	46.54	208.78	10	2
129.6	-273.58	245.21	10	2
-189.5	266.85	217.54	10	2
118.99	115.95	200.32	10	2
10.093	-97.726	217.66	10	2
93.838	-160.3	224.7	10	2
-192.87	90.697	243.73	10	2
-6.0496	-19.294	240.96	10	2
-61.418	-21.518	242.96	10	2
152.78	82.563	249.25	10	2
133.65	-149.61	233.26	10	2
-213.81	-248.45	243.99	10	2
25.55	67.537	243.33	10	2
226.48	174.5	208.16	10	2
68.709	-125.55	202	10	2
-66.429	-118.61	249.85	10	2
-145.51	144.99	204.49	10	2
42.491	-126.37	244.92	10	2
185.7	-76.472	248.03	10	2
259.08	272.84	239.55	10	2
-244.91	-61.825	245.9	10	2
78.766	12.39	248.32	10	2
-106.35	-44.721	204.43	10	2
242.29	-214.81	249.18	10	2
265.65	263.61	206.86	10	2
-171.2	-271.48	208.22	10	2
80.246	183.85	232.87	10	2
217.83	-85.669	232.53	10	2
196.14	6.1626	232.72	10	2
101.41	-77.932	204.35	10	2
-84.45	229.13	209.22	10	2
-14.377	-146.49	238.33	10	2
-150.8	-3.9107	200.31	10	2
-5.2113	158	209.08	10	2
-180.51	-100.6	203.73	10	2
-270.3	127.8	223	10	2
138.05	185.89	245.26	10	2
-253.96	71.135	205.82	10	2
249.4	209.75	241.43	10	2
-202.38	200.96	249.8	10	2
-55.683	-39.912	206.76	10	2
173.68	216.17	243.69	10	2
136.67	128.32	235.86	10	2
-99.243	-130.73	243.89	10	2
-95.513	19.917	208.51	10	2
171.34	-168.66	207.71	10	2
231.55	96.671	210.96	10	2
224.21	-192.26	238.95	10	2
-117.86	199.18	247.79	10	2
183.41	-14.992	204.63	10	2
44.854	-256.62	241	10	2
54.382	157.39	245.42	10	2
162.98	-106.01	237.62	10	2
254.48	-3.7254	239.39	10	2
148.26	-147.66	217.82	10	2
-106.04	-220.08	201.51	10	2
-185	-67.977	246.6	10	2
60.798	92.79	201.62	10	2
161.54	274.45	242.83	10	2
262.34	193.19	200.92	10	2
104.02	-236	209.8	10	2
-39.239	-217.14	219.25	10	2
134.8	92.966	200.09	10	2
78.471	126.55	210.04	10	2
-179.62	225.15	202.29	10	2
-130.06	52.187	205.85	10	2
196.43	186.56	233.2	10	2
128.33	268.64	201.63	10	2
-23.001	29.871	232.17	10	2
20.996	48.694	237.37	10	2
257.79	-26.492	225.56	10	2
-232.83	-87.969	203.31	10	2
182.2	253.45	243.11	10	2
-132.8	181.25	208.83	10	2
-110.35	270.7	244.39	10	2
152.51	-266.98	247.82	10	2
27.271	-268.06	209.63	10	2
57.067	-137.51	223.29	10	2
61.885	-212.91	228.2	10	2
-64.944	272.51	243.23	10	2
-101.21	-79.276	227.71	10	2
152.25	-115.91	212.48	10	2
-267.1	86.851	203.96	10	2
-87.154	-230.05	245.8	10	2
18.137	243.34	215.69	10	2
234.43	36.304	226.47	10	2
225.63	-167.19	248.26	10	2
-172.13	206.02	212.37	10	2
236.08	145.81	210.96	10	2
135.88	-38.022	247.52	10	2
-228.48	-56.025	213.34	10	2
-144.96	-254.97	241.91	10	2
37.864	42.74	205.93	10	2
-273.78	-198.91	234.47	10	2
78.971	-74.277	223.17	10	2
-155.29	-233.41	245.1	10	2
57.577	-4.4051	248.53	10	2
236.24	-64.159	240.39	10	2
-108.18	225.25	221.86	10	2
148.05	223.07	213.63	10	2
-42.531	-265.03	240.58	10	2
-223.87	-55.866	238.02	10	2
119.99	-12.6	235.06	10	2
267.35	-260.12	218.63	10	2
9.6228	168.61	236.21	10	2
-63.205	270.58	201.44	10	2
-90.892	178.99	219.92	10	2
-226.31	265.49	226.65	10	2
-36.501	-51.905	204.05	10	2
-202.69	-207.18	224.21	10	2
169.43	247.93	222.66	10	2
-187.86	-159.05	208.56	10	2
-251.1	57.139	239.26	10	2
-107.72	-249.3	237.79	10	2
-155.58	169.98	203.36	10	2
233.89	43.364	247.35	10	2
220.81	-240.39	206.67	10	2
-231.57	42.099	230.24	10	2
9.8007	-208.04	211.94	10	2
200.57	106.14	231.57	10	2
169.51	-230.02	201.9	10	2
-59.597	-108.97	205.24	10	2
-29.127	235.11	203.45	10	2
121.49	195.81	205.42	10	2
22.882	-263.89	239.82	10	2
257.77	57.482	202.94	10	2
-231.72	70.488	204.34	10	2
80.984	148.05	218.3	10	2
218.9	-49.562	244.67	10	2
67.995	33.45	225.16	10	2
273.64	200.94	236.08	10	2
116.09	-194.83	228.03	10	2
-274.29	-175.07	247.56	10	2
158.45	271.42	211.53	10	2
233.01	116.54	215.22	10	2
49.617	-71.053	211.84	10	2
-230.26	225.65	247.94	10	2
71.525	-174.84	247.51	10	2
-105.73	-58.275	226.94	10	2
-135.89	-199.62	224.72	10	2
-100.09	-5.4459	212.89	10	2
242.62	-256.86	233.76	10	2
-218.28	-226.71	241.92	10	2
-37.67	216.08	219.86	10	2
11.51	-80.399	200.48	10	2
-200.81	-273.22	229.98	10	2
47.906	-191.58	203.75	10	2
-75.249	-49.518	218.37	10	2
-47.105	-26.859	225.96	10	2
-199.68	-101.56	222.93	10	2
146.73	-87.591	225.36	10	2
8.1436	65.972	200.06	10	2
155.98	48.282	237.94	10	2
-47.453	82.586	231.78	10	2
231.37	150.03	242.76	10	2
32.525	-111.36	200.21	10	2
-132.33	-177.84	226.39	10	2
-140.42	187.93	248.68	10	2
159.73	-146.13	248.83	10	2
231.68	-245.64	249.58	10	2
258.7	-249.11	202.71	10	2
-125.72	48.921	248.58	10	2
-63.733	34.612	226.97	10	2
-191.41	260.75	243.64	10	2
90.355	-271.73	236.41	10	2
49.064	-197.48	235.57	10	2
168.72	-68.506	238.97	10	2
-20.729	77.369	220.49	10	2
-192.49	-211.25	240.97	10	2
66.806	238.58	235.59	10	2
-162.26	-114.29	225.07	10	2
-226.67	206.42	238.07	10	2
0.36917	-10.448	212.19	10	2
34.847	-173.62	220.64	10	2
-209.8	-237.09	210.17	10	2
-134.41	229.08	227.98	10	2
104.2	43.731	224.73	10	2
231.87	253.3	221.71	10	2
-93.961	100.66	217.41	10	2
220.35	-104.35	244.8	10	2
-217.3	-195.66	200.29	10	2
-243.89	-172.17	230.05	10	2
-75.384	218.79	224.66	10	2
-208.36	-15.655	238.65	10	2
-193.54	-20.253	200.28	10	2
-206.25	16.604	200.47	10	2
152.4	238.26	234.01	10	2
261.61	-256.47	245.06	10	2
-84.779	167.93	240.66	10	2
-44.827	27.527	203.52	10	2
-20.662	-219.01	248.45	10	2
-41.654	-26.728	246.2	10	2
-245.74	197.76	248.42	10	2
31.593	-38.405	214.83	10	2
15.001	-65.794	235.35	10	2
-111.1	-198.07	211.89	10	2
-20.432	273.24	218.65	10	2
45.453	-230.12	214.98	10	2
110.11	-17.648	203.72	10	2
24.762	-43.775	245.92	10	2
232.11	-135.8	248.14	10	2
-214.16	68.453	219.48	10	2
-121.51	175.78	237.25	10	2
178.4	-23.361	226.39	10	2
-130.7	-5.7585	201.42	10	2
-222.72	111.99	241.7	10	2
-214.88	-269.76	215.68	10	2
247.03	-31.214	204.81	10	2
19.002	11.799	216.88	10	2
-75.281	151.89	208.52	10	2
-163.86	224.98	230.4	10	2
157.95	120.09	206.2	10	2
-88.688	271.99	225.19	10	2
-26.456	179.83	204.62	10	2
141.95	-253.58	230.74	10	2
-241.62	-119.86	200.41	10	2
267.08	37.534	205.22	10	2
194.91	240.51	201.95	10	2
253.56	-149.64	214.39	10	2
-150.55	0.23857	230.08	10	2
88.658	-184.85	221.34	10	2
97.957	-86.101	230.89	10	2
215.02	31.672	224.4	10	2
171.76	221.72	223.28	10	2
-274.11	98.978	223.24	10	2
3.3786	203.63	203.55	10	2
76.567	-51.831	222.47	10	2
-210.4	-137.03	202.91	10	2
271.61	151.02	240.07	10	2
-154.77	-209.33	201.94	10	2
19.938	-110.37	237.89	10	2
21.827	27.465	230.16	10	2
91.409	43.261	201.35	10	2
-139.44	-237.47	200.6	10	2
-4.3486	201.36	222.75	10	2
-62.317	70.119	242.53	10	2
175.85	-234.55	228.52	10	2
39.952	177.4	237.17	10	2
-273.58	-219.44	207.12	10	2
214.07	134.61	206.83	10	2
98.055	155.31	248.45	10	2
-263.43	270.65	248.34	10	2
-101.23	-187.72	249.46	10	2
203.26	-134.6	215.2	10	2
-41.27	91.874	212.12	10	2
-274.74	113.71	208.81	10	2
208.09	-60.52	219.35	10	2
40.53	53.574	242.14	10	2
-95.246	162.38	204.68	10	2
-46.004	-1.0712	239.95	10	2
-175.33	-30.484	224.55	10	2
-169.1	-231.7	213.61	10	2
-162.74	-172.64	217.77	10	2
-256.69	-72.4	203.18	10	2
-177.14	37.145	205.08	10	2
173.4	92.367	249.31	10	2
-7.1991	100.21	200.17	10	2
256.68	90.582	210.45	10	2
-26.61	9.5083	212.19	10	2
-71.728	-223.41	208.38	10	2
-0.25207	-259.56	249.36	10	2
-36.273	123.6	248.47	10	2
-152.74	29.944	200.19	10	2
140.72	250.2	216.29	10	2
-32.05	-176.42	248.18	10	2
-51.069	-226.57	204.87	10	2
-118.14	234.32	249.87	10	2
119.74	-67.046	210.62	10	2
192.56	-274.93	205.16	10	2
-39.961	151.66	241.19	10	2
-144.26	129.58	227.64	10	2
196.97	44.734	209.79	10	2
139.43	-181.5	229.05	10	2
21.741	-248.16	208.83	10	2
175.97	179	237.08	10	2
118.45	-98.187	217.34	10	2
3.7988	-80.624	243.33	10	2
-268.05	-101.74	234.8	10	2
-271.53	60.635	213.49	10	2
-137.41	271.47	235.82	10	2
241.04	183.08	247.95	10	2
-31.559	267.92	241.53	10	2
216.81	-116.48	201.24	10	2
162.92	-220.85	238.04	10	2
-121.77	-176.53	203.55	10	2
-36.81	50.079	244.94	10	2
-81.917	-227.6	226.38	10	2
244.19	-177.16	248.05	10	2
-20.498	-199.46	216.73	10	2
-95.475	45.681	204.91	10	2
-52.363	-194.74	201.88	10	2
-255.43	192.69	205.95	10	2
56.603	-114.77	233.65	10	2
54.695	207.78	224.36	10	2
78.21	274.02	224.13	10	2
-160.43	81.905	225.09	10	2
-38.282	240.83	245.33	10	2
266.54	77.223	238.27	10	2
200.08	-14.836	245.41	10	2
200.28	84.726	240.49	10	2
19.437	-227.06	219.27	10	2
-18.52	-124.64	217.77	10	2
242.39	-90.201	221.07	10	2
-173.72	-197.75	246.07	10	2
181.18	-106.82	225.78	10	2
96.882	161.99	200.62	10	2
152.43	212.65	249.9	10	2
-99.431	-67.079	204.97	10	2
50.144	235.44	217.62	10	2
-50.681	52.901	213.6	10	2
232.33	-212.69	217.33	10	2
-85.482	28.925	225.75	10	2
120.7	29.775	222.01	10	2
118.52	32.379	243.57	10	2
-45.56	-1.6319	214.91	10	2
79.771	106.46	223.76	10	2
-231.79	-195.41	240.08	10	2
182.59	125	221.9	10	2
-104.87	241.63	236.37	10	2
88.073	-162.45	200.89	10	2
182.41	178.76	200.7	10	2
47.425	182.23	201.25	10	2
117.73	-250.46	222.62	10	2
-103.01	-255.82	205.94	10	2
-48.069	116.65	217.89	10	2
83.602	211.92	205.09	10	2
-117.57	-9.3828	224.87	10	2
184.68	18.421	245.86	10	2
161.16	-19.693	202.7	10	2
-238.91	159.51	211.35	10	2
-243.01	-235.08	237.46	10	2
-45.768	-71.597	204.87	10	2
-195.71	180.89	236.23	10	2
-140.57	13.998	204.85	10	2
95.984	267.48	249.87	10	2
-45.17	-220.28	247.66	10	2
270.66	53.452	239.6	10	2
-251.93	-213.36	203.85	10	2
266.66	185.6	248.75	10	2
51.616	252.56	207.38	10	2
-141.66	101.46	248.68	10	2
-33.457	146.47	200.55	10	2
-26.167	146.2	224.49	10	2
-4.3816	151.59	231.11	10	2
26.614	158.45	239.76	10	2
-57.329	78.958	206.5	10	2
-267.2	-79.764	222.57	10	2
61.679	126.49	229.86	10	2
-144.27	-121.25	202.57	10	2
50.389	103.33	217.14	10	2
-142.47	-217.14	246.02	10	2
-194.82	-42.157	213.57	10	2
238.23	204.99	224.35	10	2
-11.561	253.93	218.05	10	2
-142.92	140.99	245.73	10	2
-38.88	69.537	211.42	10	2
-207.51	-111.03	204.45	10	2
24.269	119.81	249.22	10	2
172.05	-125.94	230.25	10	2
-219.24	72.242	240.41	10	2
233.28	237.49	247.4	10	2
-104.63	125.31	203.27	10	2
-0.46001	225.8	210.24	10	2
-156.02	42.69	243.06	10	2
99.3	204.06	249.33	10	2
46.22	272.27	223.41	10	2
-11.232	-88.052	209.22	10	2
-102.44	-166.64	203.8	10	2
-208.46	45.347	243.3	10	2
-122.9	-101.39	200.59	10	2
-163.37	-52.462	210.63	10	2
-179.29	155.89	244.1	10	2
-273.22	171.12	249.88	10	2
-170.22	76.087	249.89	10	2
-213.08	-36.169	232.74	10	2
273.12	-61.612	230.42	10	2
71.695	-263.41	231.76	10	2
160.51	-191.25	248.37	10	2
100.22	-212.06	247.31	10	2
79.089	52.738	242.05	10	2
54.691	172.26	220.95	10	2
-69.493	-154.03	202.73	10	2
74.876	-272.52	213.67	10	2
-269.42	239.92	224.19	10	2
200.54	-257.24	231.6	10	2
108.04	179.46	214.99	10	2
-254.28	112.36	222.94	10	2
-165.02	151.59	200.83	10	2
207.83	-145.93	233.63	10	2
25.959	-243.8	229.35	10	2
-214.8	130.05	221.05	10	2
94.853	-208.95	203.62	10	2
-188.65	-28.046	248.56	10	2
19.086	247.5	245.41	10	2
-262.16	-17.827	200.98	10	2
-236.31	21.62	213.02	10	2
42.176	-69.798	237.12	10	2
146.6	-62.343	247.74	10	2
159.92	-134.14	206.25	10	2
42.334	140.5	228.68	10	2
180.35	196.53	223.13	10	2
189.66	-215.56	200.18	10	2
197.16	-43.37	228.41	10	2
214.8	200.63	213.92	10	2
66.843	-101.97	220.04	10	2
-269.54	255.05	202.93	10	2
220.88	159.45	223.5	10	2
-264.25	131.37	246.77	10	2
56.857	221.26	239.83	10	2
134.44	-14.985	200.22	10	2
-272.68	212.01	211.18	10	2
-71.349	-192.76	218.83	10	2
93.382	-263.62	206.97	10	2
174.74	131.79	240.47	10	2
-172.98	273.92	230.56	10	2
73.399	256.75	213.47	10	2
143.41	-25.85	229.28	10	2
-186.41	-230.99	242.44	10	2
-169.13	255.66	202.29	10	2
181.49	-4.1312	244.8	10	2
-165.06	16.784	233.85	10	2
-45.548	190.62	248.85	10	2
35.849	141.72	200.53	10	2
-1.8686	-42.029	249.05	10	2
160.83	154.59	243.41	10	2
60.033	269.7	200.8	10	2
-136.03	59.172	225.83	10	2
-32.355	-160.12	233.48	10	2
-236.57	184.24	202.46	10	2
-85.357	133.6	203.44	10	2
257.11	164.94	243.93	10	2
71.639	-121.02	248.44	10	2
-112.84	125.01	229.53	10	2
129.43	-201.24	249.97	10	2
98.223	109.83	210.27	10	2
-120.67	205.88	201.3	10	2
-149.28	80.157	248.49	10	2
123.71	-122.84	222.36	10	2
-78.976	62.833	228.01	10	2
-214.44	-206.67	244.55	10	2
90.988	-168.15	246.64	10	2
-150.34	-237.69	224.47	10	2
-180.72	239.03	248.24	10	2
218.5	271.52	227.74	10	2
-60.016	145.08	236.83	10	2
48.124	123.79	202.3	10	2
122.71	42.663	205.02	10	2
194.87	237.66	227.36	10	2
-235.3	-253.47	224.49	10	2
23.381	-10.138	240.66	10	2
-125.32	-250.03	219.98	10	2
-112.06	-177.41	227.34	10	2
-20.97	-47.887	247.87	10	2
-234.33	-216.02	248.39	10	2
-237.1	-147.71	249.32	10	2
16.626	-135.5	241.06	10	2
265.61	-128.85	225.75	10	2
217.89	108.11	244.19	10	2
1.0019	39.957	211.9	10	2
130.41	56.444	245.83	10	2
-165.73	-265.68	228.3	10	2
143.13	-203.03	231.67	10	2
99.846	-117.04	202.71	10	2
-101.47	183.45	240.97	10	2
-112.44	39.556	235.57	10	2
190.84	25.946	201.97	10	2
-51.199	257.89	244.57	10	2
-124.01	-177.51	245.64	10	2
103.81	189.79	234.09	10	2
-236.6	-150.59	228.9	10	2
-92.584	-113.3	225.62	10	2
177.09	159.44	212.33	10	2
-242.22	-23.641	240.08	10	2
-62.022	123.25	202.91	10	2
-188.79	135.83	206.04	10	2
153.32	172.58	247.94	10	2
-157.9	111.64	231.42	10	2
-132.34	-234.54	247.6	10	2
-128.3	-151.49	201.91	10	2
209.28	-41.573	206.03	10	2
-272.82	-135.26	208.26	10	2
180.49	-186.74	220.89	10	2
188.84	-259.71	249.78	10	2
107.54	-51.072	201.85	10	2
-56.295	-61.888	239.34	10	2
232.24	67.859	203.31	10	2
273.47	-152.15	202.87	10	2
-31.549	-236.27	248.45	10	2
-150.69	-272.94	211.69	10	2
-274.88	-38.932	221.38	10	2
63.554	-35.078	227.21	10	2
-20.297	-257.94	233.97	10	2
274.83	-59.108	202.32	10	2
60.581	201.44	203.53	10	2
-191.95	-136.08	213.24	10	2
27.973	87.83	201.13	10	2
94.341	247.18	243.85	10	2
-112.77	-1.0451	243.17	10	2
-143.72	-187.46	207.17	10	2
72.182	-214.34	207.75	10	2
-159.52	-143.8	209.3	10	2
-151.9	243.07	242.08	10	2
29.162	-202.87	225.28	10	2
-112.15	-36.5	227.78	10	2
-126.58	238.3	202.77	10	2
-121.91	-31.068	207.96	10	2
-143.48	-185.49	243.64	10	2
208.05	-250.95	249.08	10	2
-0.68573	-133.71	230.42	10	2
-254.93	-160.26	248.24	10	2
-221.67	91.099	249.31	10	2
-135.31	-18.037	231.87	10	2
-256.39	-266.5	242.18	10	2
133.08	165.18	248.43	10	2
-94.348	70.353	248.02	10	2
-111.38	168.12	219.79	10	2
-235.48	-274.45	210.58	10	2
-92.257	-25.621	218.02	10	2
28.102	-123.69	223.76	10	2
68.257	27.3	204.71	10	2
-89.71	-102.03	205.88	10	2
-232.77	56.969	249.63	10	2
-192.51	-0.15323	223.58	10	2
62.713	-229.88	243.3	10	2
-152.66	-74.727	243.57	10	2
43.312	202.47	241.79	10	2
-152.38	-216.34	224.72	10	2
218.9	-247.52	230.79	10	2
181.98	-62.876	217.62	10	2
-166.61	0.26319	248.66	10	2
233.33	-33.594	240.02	10	2
76.418	231.07	201.5	10	2
202.53	185.47	200.11	10	2
-145.32	-168.08	201.96	10	2
255.18	140.35	228.1	10	2
-189.55	50.032	249.21	10	2
98.277	-127.36	223.42	10	2
106.98	-151.96	209.73	10	2
99.249	139.6	234.13	10	2
262.69	-12.479	205.51	10	2
-29.858	-75.764	220.49	10	2
237.55	62.222	226.06	10	2
-187	25.174	244.19	10	2
124.46	2.2694	249.73	10	2
194.23	163.92	246.41	10	2
244.55	225.65	207.78	10	2
215.89	21.602	242.81	10	2
239.98	112.57	239.51	10	2
108.14	-259.84	246.72	10	2
-158.35	174.14	243.16	10	2
22.136	133.8	226.97	10	2
-234.28	-81.887	223.64	10	2
147.31	103.35	217.43	10	2
-180.54	185.07	208.82	10	2
-265.58	7.3566	204.16	10	2
1.398	184.08	247.01	10	2
194.93	-85.247	223.25	10	2
232.85	274.41	210.26	10	2
-39.584	-158.18	211.2	10	2
211.25	-113.77	222.15	10	2
52.014	125.62	248.36	10	2
-126.42	105.67	222.74	10	2
-155.81	-149.05	249.68	10	2
-229.99	-160.54	210.68	10	2
-242.43	-237.8	203.1	10	2
219.17	235.89	229.82	10	2
141.4	103.04	236.62	10	2
102.38	65.984	202.91	10	2
151.85	136.04	247.81	10	2
-218.88	-126.22	249.43	10	2
-68.937	252.04	230.32	10	2
122.49	-231.83	242.01	10	2
145.48	146.75	228.73	10	2
243.5	-225.37	203.14	10	2
-93.447	-264.62	245.11	10	2
-166.32	-190.21	201.83	10	2
-204.37	-145.82	247.59	10	2
-203.74	-82.525	200.41	10	2
-72.502	203.81	246.59	10	2
-122.56	10.618	226.33	10	2
-122.37	134.2	214.29	10	2
164.56	103.85	234.72	10	2
126.1	138.31	221.49	10	2
11.191	-45.373	228	10	2
-115.61	-93.046	217.38	10	2
39.209	226.4	249.41	10	2
-248.64	-200.12	220.25	10	2
-113.41	-81.043	246.52	10	2
-2.0748	68.814	249.16	10	2
-72.086	6.5367	212.03	10	2
204.22	205.64	247.4	10	2
-126.66	-129.26	226.83	10	2
-105.18	-207.24	234.2	10	2
64.7	199.55	244.91	10	2
261.17	-232.4	244.76	10	2
-223.95	-273.74	234.88	10	2
273.54	202.32	215.68	10	2
243.69	202.59	203.6	10	2
197.14	214.85	201.81	10	2
159.28	-6.6218	243.1	10	2
51.054	-88.157	226.38	10	2
-149.57	241.21	205.92	10	2
172.11	-113.77	201.25	10	2
178.58	262.45	201.87	10	2
4.5685	60.192	222.9	10	2
-189.44	198.63	227.97	10	2
-271.97	29.328	214.21	10	2
-242.64	84.276	248.84	10	2
-16.571	-274.21	207.35	10	2
179.5	-225.3	248.75	10	2
-210.48	-82.751	247.06	10	2
-274.76	51.809	248.25	10	2
121.31	-65.764	238.3	10	2
-258.51	-115.69	210.73	10	2
-72.354	-271.75	201.6	10	2
-180.87	-78.349	227.46	10	2
207.05	-0.34575	202.97	10	2
125.14	-35.996	201.25	10	2
177.59	-39.235	204.34	10	2
-40.914	-26.851	201.84	10	2
155.59	-190.65	206.92	10	2
-50.946	-132.16	210.54	10	2
70.022	87.024	223.38	10	2
-34.271	-203.87	201.89	10	2
247.86	-81.892	245.24	10	2
-4.6294	102.86	247.48	10	2
9.5795	28.55	249.34	10	2
-268.69	-12.501	246.96	10	2
-57.041	-234.39	237.7	10	2
114.06	-35.171	238.37	10	2
152.54	2.6636	202.58	10	2
-199.67	230.29	206.66	10	2
-62.069	217.74	207.93	10	2
132.47	213.77	237.64	10	2
-22.548	-226.58	207.6	10	2
274.87	-27.906	243.6	10	2
250.77	-274.66	207.36	10	2
-108.96	-148.86	218.66	10	2
-243.65	-44.583	234.04	10	2
-125.01	-223.91	210.15	10	2
-66.368	33.831	249.22	10	2
-207.32	-178.71	213.57	10	2
-271.18	-251.8	223.81	10	2
104.62	223.46	237.24	10	2
274.79	-52.878	249.47	10	2
-182.37	-211.57	208.04	10	2
269.18	181.77	221.87	10	2
110.09	21.494	204.79	10	2
270.79	-159.56	240.07	10	2
-91.424	111.2	244.72	10	2
-140.42	-56.331	214.46	10	2
-180.89	237.86	218.85	10	2
77.698	-32.547	201.24	10	2
-176.25	117.85	241.88	10	2
-158.01	-255.44	201.93	10	2
12.445	139.71	247.68	10	2
-132.29	248.09	241.25	10	2
-237.54	273.51	211.98	10	2
274.44	1.2941	237.19	10	2
160.56	249.22	248.91	10	2
86.744	-245.17	248.95	10	2
-115.82	-81.623	200.52	10	2
120.52	150.01	244	10	2
5.0684	-151.21	201.73	10	2
253.76	-30.275	249.13	10	2
-234.07	-109.55	247.29	10	2
-19.808	-27.706	204.36	10	2
215.58	-270.17	210.75	10	2
174.44	196.27	249.87	10	2
25.182	117.6	202.48	10	2
-146.27	109.4	212.31	10	2
-214.49	252.64	245.52	10	2
164.35	-97.734	215.08	10	2
-46.285	-146.17	246.46	10	2
-82.366	-180.37	242.61	10	2
59.772	-240.47	200.5	10	2
24.136	-156.77	204.23	10	2
135.43	68.374	204.19	10	2
123.33	195.09	234.39	10	2
-67.81	172.59	210.65	10	2
-219.92	242.81	210.58	10	2
186.75	5.8258	200.42	10	2
-48.001	-56.838	220.6	10	2
-28.36	13.416	245.54	10	2
-174.15	88.053	205.83	10	2
-205.41	-58.034	219.82	10	2
105.15	219.68	207.03	10	2
-80.303	88.841	207.82	10	2
273.63	240.83	202.32	10	2
-206.6	-172.34	249.19	10	2
172.3	-267.15	232.19	10	2
-122.89	-207.77	244.75	10	2
-218.5	214.05	219.22	10	2
-31.238	123.33	203.16	10	2
-230.81	-75.816	243.07	10	2
133.33	212.21	203.28	10	2
-189.19	-182.85	249.87	10	2
-7.2144	-64.809	215.75	10	2
10.761	266.29	243.49	10	2
-76.425	-11.923	200.73	10	2
-77.493	196.12	205.49	10	2
-138.3	152.23	223.57	10	2
-15.093	-1.7013	234.19	10	2
209.18	272.59	200.53	10	2
25.918	-76.235	248.56	10	2
273.11	-206.78	240.53	10	2
-269.66	-70.021	249.79	10	2
-15.166	228.53	241.46	10	2
108.33	94.196	200.1	10	2
-223.78	-106.57	224.8	10	2
-85.512	-23.492	237.02	10	2
213.21	-219.41	205.03	10	2
234.02	-147.25	200.07	10	2
-23.828	90.353	242.08	10	2
-2.9668	-106.17	230.75	10	2
-66.667	-148.12	242.93	10	2
84.352	46.54	221.77	10	2
-132.09	79.708	220.33	10	2
271.9	21.487	246.6	10	2
247.95	138.51	249.39	10	2
-99.808	80.967	219.47	10	2
-214.74	136.91	245.52	10	2
-123.3	110.35	242.27	10	2
197.24	63.165	227.64	10	2
-152.56	273.53	203.76	10	2
30.091	-205.81	248.68	10	2
-198.41	-23.601	223.16	10	2
54.082	27.182	239.48	10	2
208.32	-72.485	201.74	10	2
20.638	-21.079	221.13	10	2
-32.868	-139.61	225.1	10	2
38.392	13.312	203.19	10	2
271.46	-231.11	202.72	10	2
118.88	-274.13	227.39	10	2
87.391	29.431	239.53	10	2
160.3	-252.11	218.11	10	2
177.25	63.538	219.11	10	2
-273.22	-246.03	201.04	10	2
159.9	88.748	203.32	10	2
-87.458	148.64	246.48	10	2
95.515	-28.504	249.34	10	2
43.311	87.623	233.43	10	2
31.412	-154.75	228.39	10	2
-91.223	260.87	244.96	10	2
-270.64	137.83	202.99	10	2
144.68	-4.6161	226.63	10	2
-53.669	156.65	207.05	10	2
-160.52	-98.668	209.2	10	2
73.549	164.98	229.45	10	2
-36.339	-43.071	235.22	10	2
-257.49	16.882	249.02	10	2
-227.54	91.223	226.77	10	2
-191.71	-191.98	207.79	10	2
49.721	-163.52	231.81	10	2
235.1	-191.05	219.39	10	2
60.288	-75.305	248.87	10	2
-213.94	-30.427	206.37	10	2
71.535	6.1599	214.04	10	2
-71.564	125.45	227.45	10	2
-54.353	191	201.59	10	2
219.28	-210.01	248.32	10	2
142.85	34.161	247.93	10	2
271.97	-173.82	200.73	10	2
131.21	-134.46	246.41	10	2
-243.81	125.18	246.68	10	2
-102.99	248.81	201.1	10	2
-130.44	-87.572	232.5	10	2
-130.99	219.07	246.16	10	2
196.58	-189	207.94	10	2
-11.477	24.663	215.38	10	2
-210.68	271.96	249	10	2
254.41	248.29	242.21	10	2
-15.473	136.19	205.52	10	2
45.572	-1.4377	221.36	10	2
66.382	-199.8	246.65	10	2
-171.75	-50.142	248.44	10	2
-138.75	-149.49	221.17	10	2
274.89	4.9841	214.65	10	2
-129.26	-267.93	201.45	10	2
29.275	227.33	204.12	10	2
68.566	105.2	249.71	10	2
141.9	-102.48	249.12	10	2
244.07	26.987	208.56	10	2
114.8	108.12	221.39	10	2
-258.62	-140.6	226.02	10	2
-208.82	146.98	207.14	10	2
151.08	32.237	220.52	10	2
-197.06	-229.33	224.68	10	2
-257.33	-216.81	247.28	10	2
242.36	-157.06	238.58	10	2
-122.38	160.37	203.8	10	2
195.35	113.36	201.91	10	2
126.52	-178.02	249.63	10	2
-182.77	135.4	248.97	10	2
-89.427	223.14	249.32	10	2
-19.684	-272.87	249.41	10	2
157.96	123.46	232.23	10	2
-256.28	-190.39	239.54	10	2
-138.16	31.776	247.09	10	2
244.32	-119.03	249.28	10	2
-154.31	261.4	249.89	10	2
-95.912	43.424	248.28	10	2
-122.32	247.2	221.85	10	2
-166.97	-176.02	241.7	10	2
-16.636	-109.02	204.77	10	2
-156.22	125.68	246.64	10	2
138.27	-244.87	249.22	10	2
164.43	-5.2622	222.86	10	2
-95.189	-58.085	248.22	10	2
-253.16	-178.4	200.83	10	2
-241.73	-23.477	202.46	10	2
273.19	127.12	249.26	10	2
-196.55	224.43	246.67	10	2
-24.541	-253.84	204.24	10	2
-157.42	-105.5	248.86	10	2
85.806	-97.946	202.91	10	2
-257.03	224.37	203.63	10	2
-15.636	49.959	249.67	10	2
134.26	167.02	227.16	10	2
214.31	-168.67	201.48	10	2
274.99	-95.973	223.25	10	2
255.04	108.47	200.31	10	2
51.744	221.07	202.94	10	2
-257.74	162.64	202.55	10	2
257.12	51.054	222.64	10	2
157.79	-53.315	204.18	10	2
79.075	107.76	202.21	10	2
142.25	-69.884	203.37	10	2
-27.6	-129.73	200.55	10	2
-254.51	181.98	229.5	10	2
97.144	193.75	200.02	10	2
-128.92	120.56	200.43	10	2
-69.698	-79.652	228.25	10	2
192.8	274.48	238.89	10	2
-274.69	-121.77	229.01	10	2
-216.11	-187	230.34	10	2
-250.7	254.13	246.19	10	2
-250.01	114.14	203.03	10	2
-156.04	-274.83	245.74	10	2
100.46	-7.3057	226.21	10	2
-0.47278	245.57	200.05	10	2
-179.55	-271.78	246.06	10	2
-180.93	78.098	229.76	10	2
158.39	196.88	226.48	10	2
-96.7	12.378	227.11	10	2
-94.964	154.57	227.96	10	2
-274.77	222.35	243.83	10	2
70.773	-3.824	231.64	10	2
-202.71	38.837	201.72	10	2
-56.689	101.57	200.35	10	2
70.303	-183.37	203.5	10	2
206.96	-21.596	202.39	10	2
-140.88	222.67	206.18	10	2
-175	-8.7075	230.81	10	2
-60.294	-190.58	249.06	10	2
-140.25	-101.07	212.22	10	2
134.94	-219.28	206.07	10	2
32.504	-87.649	202.91	10	2
35.276	136.86	248.54	10	2
-32.015	174.55	236.82	10	2
266.03	-274.89	237.03	10	2
38.734	-105.3	248.42	10	2
-86.42	242.31	225.48	10	2
25.037	-130.62	202.18	10	2
-5.4232	85.421	234.84	10	2
-10.48	-209.41	200.25	10	2
-188.92	-109.59	249.03	10	2
241.76	-104.51	200.02	10	2
-32.281	-198.55	249.31	10	2
157.69	250.23	200.33	10	2
-7.767	268.53	201.06	10	2
-237.15	26.846	246.97	10	2
-169.75	-218.77	247	10	2
54.062	-266.63	202.15	10	2
-143.73	94.623	227.95	10	2
230.47	-120.29	233.69	10	2
-274.7	-271.98	200.29	10	2
-273.95	265.04	221.12	10	2
42.102	-274.65	228.7	10	2
45.916	-30.534	200.49	10	2
-104.55	-136.14	201.03	10	2
-214.19	27.787	233.37	10	2
174.24	133.4	201.71	10	2
-209	192.63	223.41	10	2
-136.48	163.31	244.09	10	2
-71.852	47.586	209.39	10	2
-21.272	70.393	201.29	10	2
-172.04	-28.051	202.29	10	2
-4.7892	-164.05	247.64	10	2
-206.52	270.66	227.95	10	2
203.41	59.646	248.08	10	2
151.28	-83.533	249.18	10	2
-90.067	-151.13	200.42	10	2
-86.001	266.16	205.13	10	2
-25.063	231.46	223.94	10	2
-198.12	148.77	239.89	10	2
-10.484	-241.96	246.15	10	2
185.77	43.781	248.38	10	2
61.568	-269.07	249.6	10	2
172.69	-168.49	245.19	10	2
216.95	51.463	219.34	10	2
-19.586	-177.91	200.19	10	2
-143.14	199.93	201.07	10	2
182.16	18.901	224.84	10	2
87.996	-189.11	246.4	10	2
219.87	132.53	241.67	10	2
-19.711	-67.611	200.29	10	2
178.01	-186.5	200.24	10	2
8.187	-274.76	200.74	10	2
138.34	235.01	200.52	10	2
45.798	-212.41	201.39	10	2
-72.287	-116.2	220.58	10	2
-82.103	-41.787	200.04	10	2
118.41	272.1	248.23	10	2
-61.712	-213.62	229.48	10	2
141.55	-222.4	244.03	10	2
107.34	-81.774	248.69	10	2
246.02	64.797	244.54	10	2
-145.46	171.06	222.99	10	2
-12.747	51.225	202.17	10	2
-91.065	-234.99	206.97	10	2
-72.705	134.4	249.51	10	2
246.78	-197.52	200.5	10	2
42.597	-176.04	246.96	10	2
190.76	-240.77	241.54	10	2
189.07	-127.42	202.72	10	2
218.74	0.36628	231.18	10	2
59.359	54.648	229.9	10	2
231.63	-229.5	232.35	10	2
89.831	225.41	221.39	10	2
246.02	181.37	203.46	10	2
-228.69	-231.43	218.52	10	2
-274.79	234.59	203.74	10	2
-72.361	185.74	237.18	10	2
-55.135	93.282	249.3	10	2
251.18	273.39	221.13	10	2
-222.7	165.07	200.84	10	2
24.243	28.418	201.37	10	2
227.4	88.198	229.1	10	2
95.683	3.7833	201.19	10	2
-78.893	-168.16	226.2	10	2
-178.02	21.256	217.24	10	2
-211.97	-62.386	200.79	10	2
150.26	-47.874	233.77	10	2
-149.43	-18.443	249.06	10	2
190.97	-274.51	227.42	10	2
-134.55	-65.669	248.46	10	2
96.268	77.926	248.77	10	2
98.581	94.741	229.37	10	2
244.44	232.74	230.96	10	2
-271.51	-273.19	220.72	10	2
203.54	-123.54	240.15	10	2
-57.887	212.7	233.48	10	2
-270.42	166.79	228.79	10	2
-110.94	-149.83	247.2	10	2
9.3991	145.09	203.22	10	2
-182.07	-61.917	206.84	10	2
-82.53	-208.13	200.34	10	2
-120.57	12.836	203.09	10	2
-182.29	116.7	203.08	10	2
35.594	200.35	221.66	10	2
-53.661	-81.015	248.58	10	2
171.13	234.53	206.22	10	2
-85.901	113.39	200.49	10	2
-101.19	218.7	201.72	10	2
104.93	-215.69	220.1	10	2
-151.86	41.951	216.43	10	2
-229.46	50.169	200.72	10	2
125.59	-25.8	219.31	10	2
190.4	-169.62	201.06	10	2
-165.93	-142.5	233.29	10	2
-160.13	193.93	233.38	10	2
41.566	-170.66	201.73	10	2
-178.64	-88.215	249.85	10	2
138.63	124.16	213.84	10	2
-189.42	161.47	226.06	10	2
-47.137	-248.79	200.6	10	2
-63.693	-59.651	200.88	10	2
244.26	-274.11	246.94	10	2
-126.61	272.88	218.64	10	2
-257.59	272.59	205.53	10	2
-112.38	56.424	215.3	10	2
273.5	129.73	226.44	10	2
-153.28	265.34	223.83	10	2
-78.787	-185.29	200.12	10	2
-274.85	30.298	235.32	10	2
80.303	225.32	249.67	10	2
-16.7	142.09	249.16	10	2
-87.393	-110.33	246.12	10	2
82.903	121.2	238.25	10	2
207.87	175.57	217.49	10	2
118.02	73.314	244.72	10	2
73.324	155.83	200.1	10	2
88.59	-6.6039	248.33	10	2
153.86	47.022	200.51	10	2
222.93	258.26	244.04	10	2
-205.02	-216.17	201.35	10	2
76.626	-130.42	222.15	10	2
-29.361	-86.444	200.16	10	2
-167.86	-128.23	249.31	10	2
136.07	-105.58	227.78	10	2
36.307	-53.651	200.12	10	2
-216.8	-157.05	233.52	10	2
158.07	-154.88	201.38	10	2
161.93	-178.1	223.72	10	2
