-100.36444819497592, 420.933829379881;;;;;;;;;;;;
19.691876306577058, 459.5274461142718;;;;;;;;;;;;
99.74374332138655, 478.3790932904611;;;;;;;;;;;;
200.39111415033483, 498.98901855597796;;;;;;;;;;;;
300.1916138978746, 514.7330978778137;;;;;;;;;;;;
399.7315379280576, 535.9770620520318;;;;;;;;;;;;
500.30374268469154, 556.5424953351474;;;;;;;;;;;;
600.0491206458673, 584.9513904271937;;;;;;;;;;;;
;;;;;;;;;;;;
;;;;;;;;;;;;
;;;;;;;;;;;;
;;;;;;;;;;;;
;;;;;;1;273.150;45.437;;1;273.1500;435.8900
;;;;;;2;373.150;44.229;;2;373.1500;477.4500
;;;;;;3;473.150;42.681;;3;473.1500;519.0200
;;;;;;4;573.150;40.794;;4;573.1500;560.5900
;;;;;;5;673.150;38.568;;5;673.1500;602.1500
;;;;;;6;773.150;36.002;;6;773.1500;665.7000
;;;;;;7;873.150;33.098;;7;873.1500;753.6200
;;;;;;8;973.150;29.854;;8;923.1500;816.4300
;;;;;;9;1076.800;26.135;;9;973.1500;921.1000
;;;;;;10;1173.150;27.100;;10;1023.1500;1130.4400
;;;;;;11;1273.150;28.100;;11;1033.1500;1339.7800
;;;;;;12;1373.150;29.100;;12;1073.1500;837.3600
;;;;;;13;1473.150;30.100;;13;1123.1500;732.6900
;;;;;;14;1573.150;31.100;;14;1223.1500;690.8200
;;;;;;15;1673.150;32.100;;15;1349.8200;690.8200
;;;;;;16;1773.150;33.100;;16;1373.1500;693.5800
;;;;;;17;1810.900;33.477;;17;1473.1500;705.3800
;;;;;;18;5000.000;33.477;;18;1573.1500;717.1800
;;;;;;;;;;19;1673.1500;728.9900
;;;;;;;;;;20;1773.1500;740.7900
;;;;;;;;;;21;1810.9000;745.2500
;;;;;;;;;;22;1810.9100;745.2500
;;;;;;;;;;23;5000.0000;745.2500
