2314.808862234184, 0.02609988963556309
2629.7471194536065, 0.05069424662416999
3092.908522304824, 0.08730808561261205
3315.19251993161, 0.1040003077732452
3871.0927170769755, 0.15074461632152703
4167.640449982377, 0.17745758199943695
4464.08251451089, 0.20138512926251406
4760.640814253988, 0.22837663678190723
5186.882390675521, 0.2655695102974752
5613.078177467069, 0.3015553691666156
5950.371636501437, 0.3311614504690851
6169.062909313947, 0.3505280124467637
6465.631775894726, 0.3777980618076401
6780.544672703698, 0.401723918376687
7021.574240390848, 0.42565653772185497
7299.601829106585, 0.4510713321668731
7682.551071516096, 0.483161550207985
7874.022170441618, 0.4991138119480466
8170.52763599627, 0.5247126102600235
8467.075368901675, 0.5514255759379333
8958.021214772467, 0.5900980885123062
9196.986022375186, 0.6082929149923219
9471.115152439506, 0.6283229053074695
9774.907509264518, 0.6512470256635948
10078.640691798475, 0.6726113117074138
10467.582035633524, 0.70035571345671
10939.799922840095, 0.7322520652490203
11411.882042192727, 0.7605695764113636
11708.106237740529, 0.7787540973427676
12170.783679425585, 0.802610719991276
12707.468562544222, 0.8297321804018122
13114.541575190626, 0.8485345424116515
13521.55695054054, 0.8658175852861275
13780.52516613726, 0.8757201339207442
14372.406406235437, 0.8971390754915773
14705.310647910763, 0.9084239531309766
15370.968725363913, 0.9270290089517795
16147.431486214358, 0.945088541484511
16554.10488027179, 0.9533569574891649
16960.7398494649, 0.9606124940702432
17367.33255130725, 0.9667538632853885
17773.917568176737, 0.9726926566158186
18189.71137062076, 0.9779286228876167
18587.150618693206, 0.9862313655313428
18993.647002208985, 0.9898337836580587
19400.101374539772, 0.992328786948332
19806.526287807912, 0.9940472493471976
20212.93903320235, 0.995444966595264
20619.34025113749, 0.9965388200162579
21025.740828658225, 0.9976157921135256
21432.12987871966, 0.9983889003837206
21838.541983699684, 0.9997697363080609
22244.90029386966, 0.9997325410393955
22651.258604039638, 0.9996953457707299
2086.7478748819376, 0.004389132729596179
