0.5420375865479723, 16.827730911112145
0.8427299703264095, 14.242210035162948
0.9020771513353116, 15.428428646148902
1.0999010880316513, 14.170157931169005
1.0999010880316518, 13.646597721744921
1.1434223541048465, 19.544996314536604
1.4203758654797234, 18.355843142535075
1.4243323442136497, 12.875878426315762
1.5905044510385755, 17.237430153132298
1.7487636003956477, 16.921913057588167
1.8437190900098912, 16.641852363961515
2.148367952522255, 15.522265550152508
