298.75129837871674, 465950990.2401935
337.7478209817968, 467474090.9488935
376.74434358487684, 466932031.2654048
415.7408661879569, 466332285.5374416
454.73738879103695, 465097993.32025844
493.733911394117, 463530403.95722234
532.7304339971972, 461764118.2187739
571.7269566002772, 453912412.6140109
610.7234792033571, 444066418.0431279
644.4022941787446, 431716261.4739151
670.9908323172083, 415814333.26660657
694.3887458790564, 398944327.8580393
717.077631757212, 380433982.6234046
733.0307546402901, 367416417.4330785
747.2113083141373, 353289436.1267638
761.3918619879846, 338845181.57583904
776.163272064909, 319017510.8946493
796.7213114754074, 296480797.35242057
816.3415074741429, 275041011.9646965
832.7868852458992, 254206110.98283702
846.4751840310685, 229970527.14759105
868.809556067378, 211745180.46864748
878.6885245901617, 200188563.0724237
891.8032786885224, 183748941.73785895
911.4754098360634, 164958054.33695078
942.548435171384, 138412542.3861419
954.6019057941542, 120891985.65067577
980.3278688524572, 101537366.27414775
1006.0064128618505, 82027573.54617113
1019.9337423629506, 71020594.41758978
1046.7755046741615, 60701015.88470757
1077.2046094326254, 45688220.55860537
1117.6782730433981, 34947912.17020321
1156.674795646478, 24933803.983994365
1195.6713182495582, 18173188.706149817
1234.6678408526382, 13593105.90944314
1273.6643634557183, 8671027.277637362
1312.6608860587983, 5188627.498646021
1351.6574086618784, 2654476.4126365185
1393.5343562299588, 2501871.554353833
1436.7291895607827, 1331364.5903908014
1470.2422887594266, 1877968.0582826138
1573.0431488255626, -7789.538231372833
1680.318460311008, -1289274.5943276882
