217.21311475409476, 468179373.7680593
256.2096373571748, 467637314.08457065
281.0256062864076, 467834266.21892965
360.65573770491477, 468098206.726699
416.3934426229477, 466891787.8857846
472.1311475409805, 464511660.12468255
522.0950187418116, 459405231.8361952
552.2286952987372, 455407210.68496513
607.1783407848955, 441126510.2552186
642.6297249695135, 427152092.2499509
660.3554170618227, 418540059.6612841
692.2616628279791, 396946754.7051719
722.3953393849047, 369484934.96392107
736.575893058752, 355675226.9022163
750.7564467325992, 340437789.2397666
761.3918619879846, 330278803.97136927
775.5724156618321, 311519633.2937486
789.7529693356794, 296313922.9557599
803.9335230095267, 279331482.44795525
816.3415074741429, 262984628.6695168
828.7494919387593, 248224141.1141283
841.1574764033758, 231877287.33568984
851.7928916587612, 218757085.11759925
860.6557377049157, 209339444.3267715
880.1539990064557, 185913236.2329452
896.107121889534, 168707664.2137673
910.2876755633813, 153152953.30670756
924.4682292372286, 138391425.51117277
938.6487829110758, 124105807.58255309
954.6019057941542, 109597058.14256
979.4178747233868, 89567085.52054489
1006.0064128618505, 73937105.80861634
1036.1400894187761, 59800762.34098518
1057.410919929547, 51116144.10655695
1098.3606557377034, 39261525.436773896
1127.8688524590148, 33375663.81897962
1157.856508452632, 28742312.294032574
1202.7615950864817, 21111016.013766587
1241.758117689562, 16011758.816788912
1263.0289482003327, 13980264.378424764
1311.4754098360643, 7446317.247748971
1363.934426229507, 2720695.759255171
1422.5601770311148, -707926.4867984056
1449.1487151695785, -1358076.5782123804
1481.9672131147531, -2043407.9889169931
