0.10325296077910434, 0.0010061599140906985
0.1096861317472319, 0.0010205582376541233
0.11611942170976906, 0.0015409802881047874
0.12255287826447969, 0.0027698355561978083
0.12898604923260726, 0.002784233879761233
0.13541924399961675, 0.002899836948702106
0.14185204211859417, 0.0013286942613517372
0.14828585962301394, 0.004092488167669384
0.15471960573078797, 0.006552667837854909
0.16115305673242614, 0.007757908665359414
0.16758662196869756, 0.009448932270676336
0.17402021338373908, 0.011251281095908006
0.18045384129039957, 0.013208810530718873
0.1997566654125538, 0.027332959074926055
0.2051180576997604, 0.029116040722001246
0.2126250064548904, 0.03586295433375941
0.2190596767525791, 0.042253251616102716
0.22549437084914975, 0.04874475364382347
0.23192918394012996, 0.05574227939843168
0.23602405922860056, 0.060170715849454215
0.24596947712388167, 0.07399054809051253
0.25035724128569803, 0.08042686646077435
0.26059600816604206, 0.09821120569836927
0.2649840400652801, 0.10578607745412749
0.2746387526346319, 0.12688356316432847
0.28029515189567544, 0.13968174906923636
0.2866343410790891, 0.15453929189174287
0.2964360980152623, 0.1791919215179535
0.30331276412288466, 0.19991632256825875
0.3101016189009039, 0.22027366007579485
0.3188225460447128, 0.24965519001216596
0.32742720018105465, 0.2819865764885888
0.33316296871331125, 0.30070204103169973
0.33960195136840443, 0.3254306381764386
0.3457485564294651, 0.35032556868179743
0.35267578623659324, 0.37882175988242217
0.3580420414286727, 0.40128434450162465
0.3648729115461348, 0.43451163939222803
0.3697504963627292, 0.451406872233582
0.3753131446882136, 0.48002988866759433
0.38497358207861193, 0.525472175878343
0.3911212473798623, 0.5548757777902675
0.398440137766685, 0.5909058481641584
0.4019520852245744, 0.6034377890356535
0.4076613477520893, 0.633786673612978
0.41483315271901927, 0.666087021885083
0.4174676750652117, 0.6778748312160514
0.42302926751363473, 0.7020077304468172
0.4280063491091806, 0.7275123317846981
0.4335685131274178, 0.7540758316502791
0.4400080760785818, 0.7812721378364718
0.45150726291076926, 0.8296978137869216
0.4569845721855021, 0.8507028174669499
0.4625461397017631, 0.8747296926787488
0.46957033006366167, 0.9010499590464963
0.4760089985735134, 0.9244426535522527
0.4836179553429498, 0.9504779640072956
0.4909763588434372, 0.9768943999569737
0.49766424301174583, 0.9942177803505226
0.18583632979932801, 0.019888253572601267
0.19336258220983404, 0.025276629249437743
